<?xml version="1.0" encoding="utf-8"?>
<svg version="1.1" xmlns="http://www.w3.org/2000/svg" xmlns:xlink="http://www.w3.org/1999/xlink" x="0px" y="0px"
	 viewBox="0 0 410.2 197.3" style="enable-background:new 0 0 410.2 197.3;" xml:space="preserve">
<style type="text/css">
	.st0{clip-path:url(#SVGID_2_);fill:#3CB7E4;}
	.st1{clip-path:url(#SVGID_2_);fill:#FFFFFF;}
	.st2{fill:#03234B;stroke:#03234B;stroke-miterlimit:10;}
	.st3{fill:#222221;}
	.st4{clip-path:url(#SVGID_4_);fill-rule:evenodd;clip-rule:evenodd;fill:#222221;}
</style>
<g id="Références_Couleurs">
</g>
<g id="Legend">
</g>
<g id="Calque_1">
</g>
<g id="Calque1">
</g>
<g id="subrand_logo">
</g>
<g id="_x31_0year_logo">
</g>
<g id="Layer_1">
	<g>
		<defs>
			<rect id="SVGID_1_" x="14.8" y="20.9" width="159.9" height="159.9"/>
		</defs>
		<clipPath id="SVGID_2_">
			<use xlink:href="#SVGID_1_"  style="overflow:visible;"/>
		</clipPath>
		<path class="st0" d="M153.6,46.8C152.1,55,148,63,143.5,67.1c13.3,6.7,22.8,17.1,11.3,30.8c-13.7,16.2-27.5,1.5-37.3-9.3
			c2.1,5.6,4.1,14,3,18.6c-2.6-3.1-5.6-12.2-6.5-17.9c-3.1,13-5,27.4-21.1,27.7c-23.2,0.5-22-21-12.9-33.4
			C68.3,84.5,56,65.4,54.8,54c0,0-0.5-3.2,1.6-4.8c10.4-8,40.9,5.2,48.3,12.1c-0.6-2.3-0.5-6.3,1.4-8.2c2.5,0.6,4.6,3.7,5.5,6.2
			c2.1-4,11.6-19.7,21.3-28.8c-11.3-6.2-24.3-9.7-38.1-9.7c-44.2,0-80,35.8-80,80s35.8,80,80,80c44.2,0,80-35.8,80-80
			C174.7,80,166.7,61,153.6,46.8"/>
		<path class="st1" d="M143,67.4c8.4-7.5,15-28.2,7.6-39.1c-10.7-15.8-35.7,24.7-39.2,31.5c-0.8-2.4-2.9-5.5-5.4-6.1
			c-1.9,1.9-2,5.9-1.4,8.1c-7.3-6.8-37.5-19.9-47.8-12c-2,1.6-1.6,4.7-1.6,4.7c1.2,11.3,13.4,30.2,24.9,29.2
			c-9,12.3-10.2,33.7,12.8,33.1c15.9-0.4,17.8-14.6,20.9-27.5c1,5.6,3.9,14.6,6.5,17.7c1.1-4.6-0.9-13-3-18.5
			c9.7,10.7,23.4,25.3,37,9.2C165.6,84.3,156.2,74,143,67.4"/>
		<path class="st1" d="M44.4,145.1v0.7c0,2.3,0.7,3.8,3.3,3.8c1.5,0,2.9-1,2.9-3c0-2.2-1.1-3-4.4-4.2c-4.4-1.5-6.4-3.3-6.4-7.4
			c0-4.8,2.9-7.2,7.6-7.2c4.4,0,7.6,1.9,7.6,6.6v0.7h-4.7c0-2.3-0.8-3.6-2.7-3.6c-2.2,0-2.8,1.4-2.8,2.8c0,1.5,0.4,2.4,2.5,3.3
			l3.8,1.6c3.7,1.6,4.7,3.5,4.7,6.5c0,5.2-3.2,7.5-8.5,7.5c-5.6,0-7.8-2.6-7.8-7.1v-1H44.4z"/>
		<polygon class="st1" points="72.5,128.3 72.5,132.3 67.2,132.3 67.2,152.7 62.2,152.7 62.2,132.3 56.9,132.3 56.9,128.3 		"/>
		<polygon class="st1" points="74.7,128.3 82.1,128.3 85.6,145.5 85.6,145.5 89.1,128.3 96.4,128.3 96.4,152.7 91.9,152.7 
			91.9,133.2 91.9,133.2 87.5,152.7 83.7,152.7 79.3,133.2 79.3,133.2 79.3,152.7 74.7,152.7 		"/>
		<path class="st1" d="M104.4,139.1h1.5c2.6,0,3.7-1.9,3.7-4.3c0-2.2-0.8-4-3.2-4c-3.2,0-3.5,2.9-3.5,4.7h-3c0-4.1,2-7,6.4-7
			c5.1,0,6.2,3.6,6.2,6.3c0,2.4-1.2,4.6-3.8,5.2v0.1c2.7,0.5,4.5,2.3,4.5,5.7c0,4.4-2.2,7.5-6.9,7.5c-6.5,0-6.9-5.7-6.9-6.7v-0.3h3
			c0,2.2,1.1,4.8,3.9,4.8c1.8,0,3.9-0.9,3.9-5c0-2.8-1.4-4.6-4.4-4.6h-1.5V139.1z"/>
		<path class="st1" d="M129.7,152.7h-13.6c0-4.5,2.5-7.6,5.2-9.9l2-1.7c2-1.7,3.2-3.2,3.2-5.8c0-2.1-0.9-4.3-3.5-4.3
			c-3.7,0-3.8,3.9-3.8,5.2h-3c0-4.6,1.9-7.7,6.9-7.7c5.6,0,6.5,4.3,6.5,6.5c0,3.7-1.5,5.6-4.2,8l-3.4,3c-1.3,1.1-2.3,2.5-2.6,4.1
			h10.4V152.7z"/>
	</g>
	<line class="st2" x1="206" y1="16.5" x2="206" y2="180.8"/>
	<g>
		<path class="st3" d="M354.4,107.4h5.8v10.2h-5.8V107.4z M319.4,25.7v78.8H315V25.7h-48.1v100.6h21.9V47.6h4.4v78.8h48.1V47.6h4.4
			v78.8h21.9V25.7H319.4z"/>
		<g>
			<defs>
				<rect id="SVGID_3_" x="239" y="25.7" width="156.4" height="150"/>
			</defs>
			<clipPath id="SVGID_4_">
				<use xlink:href="#SVGID_3_"  style="overflow:visible;"/>
			</clipPath>
			<path class="st4" d="M381.2,156.4v14l4.5,0c0,0-0.1-7.2-0.1-7.9c0.1-1,1.4-2.3,2.9-2.3c1.6-0.1,2.4,1.6,2.4,1.6s0,8.5-0.1,8.5
				h4.5c0,0,0-9.8,0-10.3c-0.5-2-2-3.9-5.2-3.9c-2.8-0.2-4.6,2.3-4.6,2.3l0-2L381.2,156.4z M372.4,159.9c-3.1-0.1-3.1,3.5-3.1,3.5
				s0.1,3.6,3.1,3.5c0,0,2.8,0.4,3-3.5C375.4,162.8,375.2,159.8,372.4,159.9L372.4,159.9z M372.4,156.2c-7.6-0.2-7.8,7.1-7.8,7.1
				s0.3,7.3,7.7,7c0,0,7,0.9,7.6-7.1C380,162.1,379.4,156.1,372.4,156.2L372.4,156.2z M349.3,151.1v19.3l4.5,0l0-7.8
				c0,0,0.6-2.4,2.7-2.4c2.2-0.1,2.6,2.1,2.6,2.1l0,8.1l4.4-0.1c0,0,0-9.5,0-10.1c-1-3.1-2.3-3.9-5.1-4c-2.9-0.1-4.6,2.3-4.6,2.3
				v-7.4L349.3,151.1L349.3,151.1z M339.6,153.1l0.1,3.8l-1.9-0.1l-0.1,3l2,0.1v6.9c0,0,0.4,2,1.4,2.5c0,0,1.1,0.9,3.3,1
				c2.2,0,3.8-0.9,3.8-0.9l-1.1-3.2c0,0-0.4,0.5-1.5,0.4c-1,0.3-1.4-0.8-1.4-0.8l-0.1-6l3.8,0v-3.1h-3.7l-0.1-3.8L339.6,153.1
				L339.6,153.1z M322.5,156.5c0,0,5.6,13.5,5.6,13.5s-0.4,1.6-2,1.9c-0.6,0.1-1.9-0.8-1.9-0.8c0,0-1.8,3-1.8,3s2.2,1.7,4,1.4
				c2.3,0.3,4.1-1.5,4.1-1.5s1.1-1.3,1-1.3c-0.1,0,6.4-16.2,6.4-16.2l-4.4-0.1l-3,9.1l-3.4-9.1L322.5,156.5z M307.2,170.4l-0.1-18.1
				c0,0,9.5,0,9.9-0.1c5.9,1.2,5.5,6.3,5.5,6.3s0.2,6.6-6.7,6.7h-4l0,5.1L307.2,170.4L307.2,170.4z M312,155.8l-0.1,5.8
				c0,0,3.3-0.1,4-0.1c2.3-0.9,2.2-2.8,2.2-2.8s0.4-2.1-2.5-3L312,155.8L312,155.8z M298.2,159.9c3.1-0.1,3.1,3.5,3.1,3.5
				s-0.1,3.6-3.1,3.5c0,0-2.8,0.4-3-3.5C295.1,162.8,295.4,159.8,298.2,159.9L298.2,159.9z M298.2,156.2c-7.6-0.2-7.8,7.1-7.8,7.1
				s0.3,7.3,7.7,7c0,0,7,0.9,7.6-7.1C305.9,162.1,305.3,156.1,298.2,156.2L298.2,156.2z M281.5,156.4l0.1,14.1h4.5v-7.3
				c0,0-0.2-1.7,1.4-2.4c1.3-0.7,3.2-0.6,3.2-0.6l0-4c0,0-1.9-0.1-3,0.7l-1.6,1.6l-0.1-2L281.5,156.4L281.5,156.4z M277.4,161.3
				c0,0,3.2-2,3.2-2c0,0-2.3-3.6-6.3-3.2c-4-0.2-5.1,2.3-5.9,2.8c-1,1.3-1.9,5.4-0.1,8.5c0.8,1.8,3.3,2.6,4.2,2.8
				c0.7,0.2,1.9,0.3,3.9-0.1c2.9-0.8,4.3-2.9,4.3-2.9l-3.2-2c0,0-1.1,1.5-2.8,1.7c-1.1-0.1-1.8-0.3-2.2-0.9c-0.5-0.2-1.8-2.4,0-5.2
				c0.4-0.8,1.5-1.1,2.3-1.1C275.9,159.7,277.4,161.3,277.4,161.3L277.4,161.3z M266,152.4c0,1.3-1,2.4-2.3,2.4
				c-1.3,0-2.3-1.1-2.3-2.4c0-1.3,1-2.4,2.3-2.4C265,150,266,151,266,152.4 M261.4,156.4h4.6v14h-4.6V156.4z M239.1,170.4l0-18.3
				l5.1,0l4.8,11.1l4.9-11.1l5.1,0l-0.1,18.1l-4.2,0.1v-11.6l-4.4,9.8l-2.9-0.1l-4.3-9.8l0,11.5L239.1,170.4L239.1,170.4z"/>
		</g>
	</g>
</g>
</svg>
